{
  "typeof" : "PlatformConfiguration",
  "_id" : "platform-configuration",
  "created" : {
    "iso" : "2022-03-22T00:51:18.442009363+01:00[Europe/Rome]",
    "ts" : 1647906678442
  },
  "updated" : {
    "iso" : "2022-03-22T00:51:18.545234065+01:00[Europe/Rome]",
    "ts" : 1647906678545
  },
  "editStatus" : "draft",
  "campaign" : {
    "startAfterXHoursBeforeNow" : 0,
    "minDaysDurationCampaign" : 5,
    "maxDaysDurationCampaign" : 30,
    "taxes" : [ {
      "country" : "it",
      "value" : 0.22
    } ],
    "x-click" : {
      "typeof" : "CampaignItemConfiguration",
      "costPerUnit" : {
        "value" : 0.5,
        "currency" : {
          "typeof" : "CatalogueEntry",
          "_id" : "/EUR/Euro",
          "created" : {
            "iso" : "2022-01-17T00:12:50.234183154+01:00[Europe/Rome]",
            "ts" : 1642374770
          },
          "updated" : {
            "iso" : "2022-01-17T00:12:50.234183154+01:00[Europe/Rome]",
            "ts" : 1642374770
          },
          "editStatus" : "complete",
          "values" : [ "EUR", "Euro", "978" ],
          "label" : "Euro",
          "regex" : "Euro",
          "fts" : "Euro"
        }
      },
      "perUnitCompesationFactor" : 0.40,
      "extraCompensationFactor" : 0.70,
      "salesCompensationFactor" : 0.0,
      "lowerBoundPercentageToExtendCampaign" : 0.3,
      "percentageOnSale": 0.0,
      "minQty": 100
    },
    "x-contact" : {
      "typeof" : "CampaignItemConfiguration",
      "costPerUnit" : {
        "value" : 3.0,
        "currency" : {
          "typeof" : "CatalogueEntry",
          "_id" : "/EUR/Euro",
          "created" : {
            "iso" : "2022-01-17T00:12:50.234183154+01:00[Europe/Rome]",
            "ts" : 1642374770
          },
          "updated" : {
            "iso" : "2022-01-17T00:12:50.234183154+01:00[Europe/Rome]",
            "ts" : 1642374770
          },
          "editStatus" : "complete",
          "values" : [ "EUR", "Euro", "978" ],
          "label" : "Euro",
          "regex" : "Euro",
          "fts" : "Euro"
        }
      },
      "phoneCost" : {
        "value" : 5.0,
        "currency" : {
          "typeof" : "CatalogueEntry",
          "_id" : "/EUR/Euro",
          "created" : {
            "iso" : "2022-01-17T00:12:50.234183154+01:00[Europe/Rome]",
            "ts" : 1642374770
          },
          "updated" : {
            "iso" : "2022-01-17T00:12:50.234183154+01:00[Europe/Rome]",
            "ts" : 1642374770
          },
          "editStatus" : "complete",
          "values" : [ "EUR", "Euro", "978" ],
          "label" : "Euro",
          "regex" : "Euro",
          "fts" : "Euro"
        }
      },
      "emailCost" : {
        "value" : 3.0,
        "currency" : {
          "typeof" : "CatalogueEntry",
          "_id" : "/EUR/Euro",
          "created" : {
            "iso" : "2022-01-17T00:12:50.234183154+01:00[Europe/Rome]",
            "ts" : 1642374770
          },
          "updated" : {
            "iso" : "2022-01-17T00:12:50.234183154+01:00[Europe/Rome]",
            "ts" : 1642374770
          },
          "editStatus" : "complete",
          "values" : [ "EUR", "Euro", "978" ],
          "label" : "Euro",
          "regex" : "Euro",
          "fts" : "Euro"
        }
      },
      "emailAndPhoneCost" : {
        "value" : 7.0,
        "currency" : {
          "typeof" : "CatalogueEntry",
          "_id" : "/EUR/Euro",
          "created" : {
            "iso" : "2022-01-17T00:12:50.234183154+01:00[Europe/Rome]",
            "ts" : 1642374770
          },
          "updated" : {
            "iso" : "2022-01-17T00:12:50.234183154+01:00[Europe/Rome]",
            "ts" : 1642374770
          },
          "editStatus" : "complete",
          "values" : [ "EUR", "Euro", "978" ],
          "label" : "Euro",
          "regex" : "Euro",
          "fts" : "Euro"
        }
      },
      "perUnitCompesationFactor" : 0.40,
      "extraCompensationFactor" : 0.70,
      "salesCompensationFactor" : 0.0,
      "lowerBoundPercentageToExtendCampaign" : 0.3,
      "percentageOnSale": 0.0,
      "minQty": 50
    },
    "x-post-engagement" : {
      "typeof" : "CampaignItemConfiguration",
      "costPerUnit" : {
        "value" : 0.1,
        "currency" : {
          "typeof" : "CatalogueEntry",
          "_id" : "/EUR/Euro",
          "created" : {
            "iso" : "2022-01-17T00:12:50.234183154+01:00[Europe/Rome]",
            "ts" : 1642374770
          },
          "updated" : {
            "iso" : "2022-01-17T00:12:50.234183154+01:00[Europe/Rome]",
            "ts" : 1642374770
          },
          "editStatus" : "complete",
          "values" : [ "EUR", "Euro", "978" ],
          "label" : "Euro",
          "regex" : "Euro",
          "fts" : "Euro"
        }
      },
      "perUnitCompesationFactor" : 0.40,
      "extraCompensationFactor" : 0.70,
      "salesCompensationFactor" : 0.0,
      "lowerBoundPercentageToExtendCampaign" : 0.3,
      "percentageOnSale": 0.0,
      "minQty": 1000
    },
    "x-post-impression" : {
      "typeof" : "CampaignItemConfiguration",
      "costPerUnit" : {
        "value" : 0.01,
        "currency" : {
          "typeof" : "CatalogueEntry",
          "_id" : "/EUR/Euro",
          "created" : {
            "iso" : "2022-01-17T00:12:50.234183154+01:00[Europe/Rome]",
            "ts" : 1642374770
          },
          "updated" : {
            "iso" : "2022-01-17T00:12:50.234183154+01:00[Europe/Rome]",
            "ts" : 1642374770
          },
          "editStatus" : "complete",
          "values" : [ "EUR", "Euro", "978" ],
          "label" : "Euro",
          "regex" : "Euro",
          "fts" : "Euro"
        }
      },
      "perUnitCompesationFactor" : 0.40,
      "extraCompensationFactor" : 0.70,
      "salesCompensationFactor" : 0.0,
      "lowerBoundPercentageToExtendCampaign" : 0.3,
      "percentageOnSale": 0.0,
      "minQty": 1000
    },
    "x-sales" : {
      "typeof" : "CampaignItemConfiguration",
      "costPerUnit" : {
        "value" : 3.0,
        "currency" : {
          "typeof" : "CatalogueEntry",
          "_id" : "/EUR/Euro",
          "created" : {
            "iso" : "2022-01-17T00:12:50.234183154+01:00[Europe/Rome]",
            "ts" : 1642374770
          },
          "updated" : {
            "iso" : "2022-01-17T00:12:50.234183154+01:00[Europe/Rome]",
            "ts" : 1642374770
          },
          "editStatus" : "complete",
          "values" : [ "EUR", "Euro", "978" ],
          "label" : "Euro",
          "regex" : "Euro",
          "fts" : "Euro"
        }
      },
      "perUnitCompesationFactor" : 0.40,
      "extraCompensationFactor" : 0.70,
      "salesCompensationFactor" : 0.40,
      "lowerBoundPercentageToExtendCampaign" : 0.3,
      "percentageOnSale": 0.10,
      "minQty": 20
    }
  },
  "social" : {
    "typeof" : "CatalogueEntrySocialConfiguration",
    "_id" : "62390f76adccb01574b08cda",
    "created" : {
      "iso" : "2022-03-22T00:51:18.520828703+01:00[Europe/Rome]",
      "ts" : 1647906678520
    },
    "updated" : {
      "iso" : "2022-03-22T00:51:18.520828703+01:00[Europe/Rome]",
      "ts" : 1647906678520
    },
    "editStatus" : "draft",
    "minActive" : 10
  },
  "taxPercentage" : 0.22,
  "proposal" : {
    "typeof" : "CampaignProposalConfiguration",
    "shortCodeGenerator" : {
      "codeMaxLenght" : 6,
      "useLetters" : true,
      "useNumbers" : true
    },
    "x-click" : {
      "typeof" : "CampaignProposalItemConfiguration",
      "green" : 30.0,
      "yellow" : 100.0,
      "clusterFactor" : 0.1,
      "expireInHours" : 1,
      "k1" : 0.75,
      "k2" : 0.8,
      "k3" : 0.9,
      "factor" : 2.0
    },
    "x-contact" : {
      "typeof" : "CampaignProposalItemConfiguration",
      "green" : 30.0,
      "yellow" : 100.0,
      "clusterFactor" : 0.1,
      "expireInHours" : 2,
      "k1" : 0.75,
      "k2" : 0.8,
      "k3" : 0.9,
      "factor" : 2.0
    },
    "x-post-engagement" : {
      "typeof" : "CampaignProposalItemConfiguration",
      "green" : 30.0,
      "yellow" : 100.0,
      "clusterFactor" : 0.1,
      "expireInHours" : 3,
      "k1" : 0.75,
      "k2" : 0.8,
      "k3" : 0.9,
      "factor" : 2.0
    },
    "x-post-impression" : {
      "typeof" : "CampaignProposalItemConfiguration",
      "green" : 30.0,
      "yellow" : 100.0,
      "clusterFactor" : 0.1,
      "expireInHours" : 3,
      "k1" : 0.75,
      "k2" : 0.8,
      "k3" : 0.9,
      "factor" : 2.0
    },
    "x-sales" : {
      "typeof" : "CampaignProposalItemConfiguration",
      "green" : 30.0,
      "yellow" : 100.0,
      "clusterFactor" : 0.1,
      "expireInHours" : 4,
      "k1" : 0.75,
      "k2" : 0.8,
      "k3" : 0.9,
      "factor" : 2.0
    }
  },
  "influencer" : {
    "typeof" : "InfluencerConfiguration",
    "maxNumberOfCircles" : 3,
    "maxRadiusPerCircleInMeters" : 5000.0,
    "maxYearlyAmount" : 5000.0
  },
  "cashout" : {
    "pec" : "enchoraPec",
    "sdi" : "enchoraSDI",
    "iban" : "enchoraIban",
    "minCashout" : 1.00,
    "maxYearlyAmount" : 5000.0
  },
  "deepLinks" : {
    "performance" : "https://devlink.enchora.com/NojS",
    "campaigns" : "https://devlink.enchora.com/vwyH"
  },
  "whitelist": {
    "endDateTs": 1649628000,
    "active": true
  },
  "version" : "v1",
  "tenant" : "it"
}
